{
  "categories": [
    {
      "id": 1,
      "name": "Web Development"
    },
    {
      "id": 2,
      "name": "Mobile App Development"
    },
    {
      "id": 3,
      "name": "Data Science"
    },
    {
      "id": 4,
      "name": "Programming Languages"
    },
    {
      "id": 5,
      "name": "UI/UX Design"
    },
    {
      "id": 6,
      "name": "DevOps"
    },
    {
      "id": 7,
      "name": "Artificial Intelligence"
    },
    {
      "id": 8,
      "name": "Game Development"
    },
    {
      "id": 9,
      "name": "Cybersecurity"
    }
  ],
  "discussions": [
    {
      "id": 1,
      "title": "Getting Started with Python",
      "category_id": 4,
      "content": "Discuss Python programming basics here."
    },
    {
      "id": 2,
      "title": "Frontend Frameworks Comparison",
      "category_id": 1,
      "content": "Compare popular frontend frameworks."
    },
    {
      "id": 3,
      "title": "iOS vs. Android Development",
      "category_id": 2,
      "content": "Which platform is better for app development?"
    },
    {
      "id": 4,
      "title": "Data Analysis Tools",
      "category_id": 3,
      "content": "Share your favorite data analysis tools and techniques."
    },
    {
      "id": 5,
      "title": "JavaScript vs. TypeScript",
      "category_id": 4,
      "content": "Discuss the pros and cons of JavaScript and TypeScript."
    },
    {
      "id": 6,
      "title": "Responsive Web Design",
      "category_id": 1,
      "content": "Tips and tricks for creating responsive web designs."
    },
    {
      "id": 7,
      "title": "Android App Development Resources",
      "category_id": 2,
      "content": "Share useful resources for Android app development."
    },
    {
      "id": 8,
      "title": "Machine Learning Libraries",
      "category_id": 3,
      "content": "Discuss various machine learning libraries and frameworks."
    },
    {
      "id": 9,
      "title": "Designing User Interfaces",
      "category_id": 5,
      "content": "Best practices for designing user-friendly UIs."
    },
    {
      "id": 10,
      "title": "Java vs. C#",
      "category_id": 4,
      "content": "Compare Java and C# for backend development."
    },
    {
      "id": 11,
      "title": "Continuous Integration with Jenkins",
      "category_id": 6,
      "content": "Discuss CI/CD practices with Jenkins."
    },
    {
      "id": 12,
      "title": "Introduction to Deep Learning",
      "category_id": 7,
      "content": "Learn the basics of deep learning and neural networks."
    },
    {
      "id": 13,
      "title": "Game Development Tools",
      "category_id": 8,
      "content": "Share tools and tips for game development."
    },
    {
      "id": 14,
      "title": "Cybersecurity Best Practices",
      "category_id": 9,
      "content": "Discuss cybersecurity tips and strategies."
    }
  ]
}
